8x8 Synchronous FIFO Design with Testcases/test_fifo.vcd
$date
	Sun Jun 15 09:46:57 2025
$end

$version
	Synopsys VCS version U-2023.03-SP2_Full64
$end

$timescale
	1ns
$end

$comment Csum: 1 108f6831b8ec9d81 $end


$scope module sync_8x8_fifo_tb $end
$var reg 1 ! clk $end
$var reg 1 " rst $end
$var reg 1 # we $end
$var reg 1 $ re $end
$var reg 8 % w_data [7:0] $end
$var wire 8 & r_data [7:0] $end
$var wire 1 ' full $end
$var wire 1 ( empty $end
$var wire 1 ) almost_full $end
$var wire 1 * almost_empty $end
$var integer 32 + i $end

$scope module dut $end
$var reg 3 , wp [2:0] $end
$var reg 3 - rp [2:0] $end
$var reg 1 . overrun $end
$var reg 1 / underrun $end
$var wire 1 ! clk $end
$var wire 1 " rst $end
$var wire 1 # we $end
$var wire 1 $ re $end
$var wire 8 % w_data [7:0] $end
$var reg 8 & r_data [7:0] $end
$var reg 1 ' full $end
$var reg 1 ( empty $end
$var reg 1 * almost_empty $end
$var reg 1 ) almost_full $end
$var reg 4 0 count [3:0] $end
$upscope $end

$upscope $end

$enddefinitions $end

#0
$dumpvars
0!
1*
0)
1(
0'
x.
0$
0"
x/
0#
b0000 0
b00000000 &
bxxxxxxxxxxxxxxxxxxxxxxxxxxxxxxxx +
b000 -
b00000000 %
b000 ,
$end
#5
1!
#10
0!
#12
1"
#15
1!
1#
b00100100 %
b001 ,
b0001 0
0.
0/
#20
0!
#25
1!
b10000001 %
b010 ,
b0010 0
0(
#30
0!
#35
1!
b00001001 %
b011 ,
b0011 0
#40
0!
#45
1!
0#
0*
#50
0!
#55
1!
1$
b00100100 &
b001 -
b0010 0
#60
0!
#65
1!
b10000001 &
b010 -
b0001 0
1*
#70
0!
#75
1!
b00001001 &
b011 -
b0000 0
#80
0!
#85
1!
0$
1(
#90
0!
#95
1!
0"
b000 ,
b000 -
b00000000 &
#100
0!
#105
1!
1"
#110
0!
#115
1!
1#
b01100011 %
b001 ,
b0001 0
#120
0!
#125
1!
b00001101 %
b010 ,
b0010 0
0(
#130
0!
#135
1!
b10001101 %
b011 ,
b0011 0
#140
0!
#145
1!
b01100101 %
b100 ,
b0100 0
0*
#150
0!
#155
1!
b00010010 %
b101 ,
b0101 0
#160
0!
#165
1!
b00000001 %
b110 ,
b0110 0
#170
0!
#175
1!
b00001101 %
b111 ,
b0111 0
1)
#180
0!
#185
1!
b01110110 %
b000 ,
b1000 0
#190
0!
#195
1!
0#
b00000000000000000000000000000000 +
b00000000000000000000000000001000 +
1'
#200
0!
#205
1!
1$
b01100011 &
b001 -
b0111 0
#210
0!
#215
1!
b00001101 &
b010 -
b0110 0
0'
#220
0!
#225
1!
b10001101 &
b011 -
b0101 0
#230
0!
#235
1!
b01100101 &
b100 -
b0100 0
0)
#240
0!
#245
1!
b00010010 &
b101 -
b0011 0
#250
0!
#255
1!
b00000001 &
b110 -
b0010 0
#260
0!
#265
1!
b00001101 &
b111 -
b0001 0
1*
#270
0!
#275
1!
b01110110 &
b000 -
b0000 0
#280
0!
#285
1!
0$
1(
#290
0!
#295
1!
#300
0!
#305
b00000000000000000000000000000000 +
b00000000000000000000000000001000 +
1!
