8x8 Synchronous FIFO Design with Self-Checking Testbench/test_fifo.vcd
$date
	Sun Jun 15 09:45:21 2025
$end

$version
	Synopsys VCS version U-2023.03-SP2_Full64
$end

$timescale
	1ns
$end

$comment Csum: 1 108f6831b8ec9d81 $end


$scope module sync_8x8_fifo_tb $end
$var reg 1 ! clk $end
$var reg 1 " rst $end
$var reg 1 # we $end
$var reg 1 $ re $end
$var reg 8 % w_data [7:0] $end
$var wire 8 & r_data [7:0] $end
$var wire 1 ' full $end
$var wire 1 ( empty $end
$var wire 1 ) almost_full $end
$var wire 1 * almost_empty $end
$var integer 32 + i $end
$var reg 3 , ref_wp [2:0] $end
$var reg 3 - ref_rp [2:0] $end
$var reg 4 . ref_count [3:0] $end

$scope module dut $end
$var wire 1 ! clk $end
$var wire 1 " rst $end
$var wire 1 # we $end
$var wire 1 $ re $end
$var wire 8 % w_data [7:0] $end
$var reg 8 & r_data [7:0] $end
$var reg 1 ' full $end
$var reg 1 ( empty $end
$var reg 1 * almost_empty $end
$var reg 1 ) almost_full $end
$var reg 3 / wp [2:0] $end
$var reg 3 0 rp [2:0] $end
$var reg 4 1 count [3:0] $end
$var reg 1 2 overrun $end
$var reg 1 3 underrun $end
$upscope $end

$upscope $end

$enddefinitions $end

#0
$dumpvars
0!
1*
0)
1(
0'
x2
0$
0"
x3
0#
b0000 1
b00000000 &
bxxxxxxxxxxxxxxxxxxxxxxxxxxxxxxxx +
b0000 .
b000 -
b000 ,
b000 0
b00000000 %
b000 /
$end
#5
1!
#10
0!
#12
1"
1#
b00000000000000000000000000000000 +
#15
1!
b001 ,
b0001 .
b00000000000000000000000000000001 +
b001 /
b0001 1
02
03
#20
0!
#25
1!
b00000001 %
b010 ,
b0010 .
b00000000000000000000000000000010 +
b010 /
b0010 1
0(
#30
0!
#35
1!
b00000010 %
b011 ,
b0011 .
b00000000000000000000000000000011 +
b011 /
b0011 1
#40
0!
#45
1!
b00000011 %
b100 ,
b0100 .
b00000000000000000000000000000100 +
b100 /
b0100 1
0*
#50
0!
#55
1!
b00000100 %
b101 ,
b0101 .
b00000000000000000000000000000101 +
b101 /
b0101 1
#60
0!
#65
1!
b00000101 %
b110 ,
b0110 .
b00000000000000000000000000000110 +
b110 /
b0110 1
#70
0!
#75
1!
b00000110 %
b111 ,
b0111 .
b00000000000000000000000000000111 +
b111 /
b0111 1
1)
#80
0!
#85
1!
b00000111 %
b000 ,
b1000 .
b00000000000000000000000000001000 +
b000 /
b1000 1
#90
0!
#95
1!
0#
1'
#100
0!
#105
1!
b00000000000000000000000000000000 +
b00000000000000000000000000001000 +
1$
b00000000000000000000000000000000 +
b001 0
b0111 1
#110
0!
#115
1!
b001 -
b0111 .
b00000000000000000000000000000001 +
b00000001 &
b010 0
b0110 1
0'
#120
0!
#125
1!
b010 -
b0110 .
b00000000000000000000000000000010 +
b00000010 &
b011 0
b0101 1
#130
0!
#135
1!
b011 -
b0101 .
b00000000000000000000000000000011 +
b00000011 &
b100 0
b0100 1
0)
#140
0!
#145
1!
b100 -
b0100 .
b00000000000000000000000000000100 +
b00000100 &
b101 0
b0011 1
#150
0!
#155
1!
b101 -
b0011 .
b00000000000000000000000000000101 +
b00000101 &
b110 0
b0010 1
#160
0!
#165
1!
b110 -
b0010 .
b00000000000000000000000000000110 +
b00000110 &
b111 0
b0001 1
1*
#170
0!
#175
1!
b111 -
b0001 .
b00000000000000000000000000000111 +
b00000111 &
b000 0
b0000 1
#180
0!
#185
1!
b000 -
b0000 .
b00000000000000000000000000001000 +
b00000000 &
b001 0
b1111 1
1(
#190
0!
#195
1!
0$
0(
1)
0*
